…
* Base R (loads as a data.frame): read.csv, read.table, read.delim
* TidyVerse (loads as a tibble): read_csv, read_table, read_delim

* [tibbles](http://r4ds.had.co.nz/tibbles.html) print cleaner and have slightly different subsetting syntax

## Data Input


```r
dat
```

```
# A tibble: 9,794 x 31
    YEAR LocationAbbr LocationDesc                 TopicType
   <int>        <chr>        <chr>                     <chr>
 1  2015           AZ      Arizona Tobacco Use – Survey Data
 2  2015           AZ      Arizona Tobacco Use – Survey Data
 3  2015           AZ      Arizona Tobacco Use – Survey Data
 4  2015           AZ      Arizona Tobacco Use – Survey Data
 5  2015           AZ      Arizona Tobacco Use – Survey Data
 6  2015           AZ      Arizona Tobacco Use – Survey Data
 7  2015           AZ      Arizona Tobacco Use – Survey Data
 8  2015           AZ      Arizona Tobacco Use – Survey Data
 9  2015           AZ      Arizona Tobacco Use – Survey Data
10  2015           AZ      Arizona Tobacco Use – Survey Data
# ... with 9,784 more rows, and 27 more variables: TopicDesc <chr>,
#   MeasureDesc <chr>, DataSource <chr>, Response <chr>,
#   Data_Value_Unit <chr>, Data_Value_Type <chr>, Data_Value <dbl>,
#   Data_Value_Footnote_Symbol <chr>, Data_Value_Footnote <chr>,
#   Data_Value_Std_Err <dbl>, Low_Confidence_Limit <dbl>,
#   High_Confidence_Limit <dbl>, Sample_Size <int>, Gender <chr>,
#   Race <chr>, Age <chr>, Education <chr>, GeoLocation <chr>,
#   TopicTypeId <chr>, TopicId <chr>, MeasureId <chr>,
#   StratificationID1 <chr>, StratificationID2 <chr>,
…
