Reproducible Data Cleaning in RMarkdown
…
Workflow for running R code within Rmd

I prefer to be able to use Console

Set R output to console (not inline) when running lines see here

Select just a few variables of interest

notif2 <- select(notif, iso3, country, g_whoregion, year, c_newinc) %>% 
  rename(whoreg = g_whoregion, inc = c_newinc)
notif2

## # A tibble: 7,674 x 5
##     iso3     country whoreg  year   inc
##    <chr>       <chr>  <chr> <int> <int>
##  1   AFG Afghanistan    EMR  1980 71685
##  2   AFG Afghanistan    EMR  1981 71554
##  3   AFG Afghanistan    EMR  1982 41752
##  4   AFG Afghanistan    EMR  1983 52502
##  5   AFG Afghanistan    EMR  1984 18784
##  6   AFG Afghanistan    EMR  1985 10742
##  7   AFG Afghanistan    EMR  1986 14351
##  8   AFG Afghanistan    EMR  1987 18091
##  9   AFG Afghanistan    EMR  1988 16051
## 10   AFG Afghanistan    EMR  1989 14386
## # ... with 7,664 more rows
head(distinct(notif2, country) %>% .$country)

## [1] "Afghanistan"    "Albania"        "Algeria"        "American Samoa"
## [5] "Andorra"        "Angola"

Missing values

indNA <- which(is.na(notif2$inc))
head(indNA)

## [1] 13 14 15 16 17 49

slice(notif2, indNA)

## # A tibble: 534 x 5
##     iso3        country whoreg  year   inc
##    <chr>          <chr>  <chr> <int> <int>
##  1   AFG    Afghanistan    EMR  1992    NA
##  2   AFG    Afghanistan    EMR  1993    NA
##  3   AFG    Afghanistan    EMR  1994    NA
##  4   AFG    Afghanistan    EMR  1995    NA
##  5   AFG    Afghanistan    EMR  1996    NA
##  6   ALB        Albania    EUR  1992    NA
##  7   ALB        Albania    EUR  1993    NA
##  8   DZA        Algeria    AFR  1981    NA
##  9   ASM American Samoa    WPR  1995    NA
## 10   ASM American Samoa    WPR  2012    NA
## # ... with 524 more rows

Excercise: Repeat this but look at rows with 0 values

## [1] 125 217 218 220 221 223

## # A tibble: 173 x 5
##     iso3        country whoreg  year   inc
##    <chr>          <chr>  <chr> <int> <int>
##  1   ASM American Samoa    WPR  1996     0
##  2   AIA       Anguilla    AMR  1980     0
##  3   AIA       Anguilla    AMR  1981     0
##  4   AIA       Anguilla    AMR  1983     0
##  5   AIA       Anguilla    AMR  1984     0
##  6   AIA       Anguilla    AMR  1986     0
##  7   AIA       Anguilla    AMR  1987     0
##  8   AIA       Anguilla    AMR  1988     0
##  9   AIA       Anguilla    AMR  1989     0
## 10   AIA       Anguilla    AMR  1990     0
## # ... with 163 more rows
…
## # A tibble: 5 x 5
##    year Angola Argentina Armenia Azerbaijan
##   <int>  <int>     <int>   <int>      <int>
## 1  1980  10117     16406     756       3080
## 2  1981   7501     16693     924       3180
## 3  1982   7911     17292     759       3217
## 4  1983   6625     17305     702       3176
## 5  1984  10153     16359     774       3506

## # A tibble: 36 x 5
##     iso3   country whoreg  year   inc
##    <chr>     <chr>  <chr> <int> <int>
##  1   ARG Argentina    AMR  1980 16406
##  2   ARG Argentina    AMR  1981 16693
##  3   ARG Argentina    AMR  1982 17292
##  4   ARG Argentina    AMR  1983 17305
##  5   ARG Argentina    AMR  1984 16359
##  6   ARG Argentina    AMR  1985 15987
##  7   ARG Argentina    AMR  1986 14681
##  8   ARG Argentina    AMR  1987 13368
##  9   ARG Argentina    AMR  1988 13267
## 10   ARG Argentina    AMR  1989 12636
## # ... with 26 more rows
…
## function (data, key, value, fill = NA, convert = FALSE, drop = TRUE, 
##     sep = NULL) 
## NULL

## # A tibble: 6 x 5
##    iso3 country whoreg  year   inc
##   <chr>   <chr>  <chr> <int> <int>
## 1   AGO  Angola    AFR  1980 10117
## 2   AGO  Angola    AFR  1981  7501
## 3   AGO  Angola    AFR  1982  7911
## 4   AGO  Angola    AFR  1983  6625
## 5   AGO  Angola    AFR  1984 10153
## 6   AGO  Angola    AFR  1985  8653

## # A tibble: 36 x 116
##     year Angola Argentina Armenia Azerbaijan Bangladesh Belarus Belgium
##  * <int>  <int>     <int>   <int>      <int>      <int>   <int>   <int>
##  1  1980  10117     16406     756       3080      39774    5954    2687
##  2  1981   7501     16693     924       3180      42644    6198    2837
##  3  1982   7911     17292     759       3217      49870    5468    2652
##  4  1983   6625     17305     702       3176      52961    5509    2190
##  5  1984  10153     16359     774       3506      45679    5065    2149
##  6  1985   8653     15987     768       3772      41802    4873    1956
##  7  1986   9363     14681     832       3804      45599    4128    1893
##  8  1987   8510     13368     766       3677      45355    3911    1772
##  9  1988   8184     13267     651       3340      44280    3769    1588
## 10  1989   9587     12636     649       2989      45191    3708    1648
## # ... with 26 more rows, and 108 more variables: Belize <int>,
## #   Benin <int>, Bhutan <int>, `Bolivia (Plurinational State of)` <int>,
## #   `Bosnia and Herzegovina` <int>, Botswana <int>, Bulgaria <int>,
## #   Burundi <int>, Cambodia <int>, Cameroon <int>, Canada <int>,
## #   Chile <int>, `China, Hong Kong SAR` <int>, Colombia <int>,
## #   Congo <int>, `Costa Rica` <int>, `Cte d'Ivoire` <int>, Croatia <int>,
## #   Cuba <int>, Curaao <int>, Cyprus <int>, Czechia <int>, `Democratic
## #   Republic of the Congo` <int>, Denmark <int>, `Dominican
## #   Republic` <int>, Ecuador <int>, Egypt <int>, `El Salvador` <int>,
…
## #   Mali <int>, Malta <int>, Mauritius <int>, Mexico <int>,
## #   Mongolia <int>, Montenegro <int>, Morocco <int>, Mozambique <int>,
## #   Myanmar <int>, Netherlands <int>, `New Zealand` <int>,
## #   Nicaragua <int>, Nigeria <int>, Norway <int>, Oman <int>,
## #   Panama <int>, `Papua New Guinea` <int>, Paraguay <int>, Peru <int>,
## #   Philippines <int>, Poland <int>, Portugal <int>, `Republic of
## #   Korea` <int>, `Republic of Moldova` <int>, Romania <int>, `Russian
## #   Federation` <int>, `Saint Vincent and the Grenadines` <int>,
## #   Serbia <int>, `Serbia & Montenegro` <int>, Singapore <int>, `Sint
## #   Maarten (Dutch part)` <int>, Slovakia <int>, Slovenia <int>, `Solomon
## #   Islands` <int>, `South Africa` <int>, `South Sudan` <int>, `Sri
## #   Lanka` <int>, Sweden <int>, Switzerland <int>, Tajikistan <int>,
## #   Thailand <int>, Tonga <int>, `Trinidad and Tobago` <int>, ...

## # A tibble: 36 x 5
##     iso3   country whoreg  year   inc
##    <chr>     <chr>  <chr> <int> <int>
##  1   ARG Argentina    AMR  1980 16406
##  2   ARG Argentina    AMR  1981 16693
##  3   ARG Argentina    AMR  1982 17292
##  4   ARG Argentina    AMR  1983 17305
##  5   ARG Argentina    AMR  1984 16359
##  6   ARG Argentina    AMR  1985 15987
##  7   ARG Argentina    AMR  1986 14681
##  8   ARG Argentina    AMR  1987 13368
##  9   ARG Argentina    AMR  1988 13267
## 10   ARG Argentina    AMR  1989 12636
## # ... with 26 more rows
