Reproducible Data Cleaning in RMarkdown
…
Workflow for running R code within Rmd

I prefer to be able to use Console

Set R output to console (not inline) when running lines see here

Select just a few variables of interest

notif2 <- select(notif, iso3, country, g_whoregion, year, c_newinc) %>% 
  rename(whoreg = g_whoregion, inc = c_newinc)
notif2

## # A tibble: 7,674 x 5
##     iso3     country whoreg  year   inc
##    <chr>       <chr>  <chr> <int> <int>
##  1   AFG Afghanistan    EMR  1980 71685
##  2   AFG Afghanistan    EMR  1981 71554
##  3   AFG Afghanistan    EMR  1982 41752
##  4   AFG Afghanistan    EMR  1983 52502
##  5   AFG Afghanistan    EMR  1984 18784
##  6   AFG Afghanistan    EMR  1985 10742
##  7   AFG Afghanistan    EMR  1986 14351
##  8   AFG Afghanistan    EMR  1987 18091
##  9   AFG Afghanistan    EMR  1988 16051
## 10   AFG Afghanistan    EMR  1989 14386
## # ... with 7,664 more rows
head(distinct(notif2, country) %>% .$country)

## [1] "Afghanistan"    "Albania"        "Algeria"        "American Samoa"
## [5] "Andorra"        "Angola"

Missing values

indNA <- which(is.na(notif2$inc))
head(indNA)

## [1] 13 14 15 16 17 49

slice(notif2, indNA)

## # A tibble: 534 x 5
##     iso3        country whoreg  year   inc
##    <chr>          <chr>  <chr> <int> <int>
##  1   AFG    Afghanistan    EMR  1992    NA
##  2   AFG    Afghanistan    EMR  1993    NA
##  3   AFG    Afghanistan    EMR  1994    NA
##  4   AFG    Afghanistan    EMR  1995    NA
##  5   AFG    Afghanistan    EMR  1996    NA
##  6   ALB        Albania    EUR  1992    NA
##  7   ALB        Albania    EUR  1993    NA
##  8   DZA        Algeria    AFR  1981    NA
##  9   ASM American Samoa    WPR  1995    NA
## 10   ASM American Samoa    WPR  2012    NA
## # ... with 524 more rows

Excercise: Repeat this but look at rows with 0 values

## [1] 125 217 218 220 221 223

## # A tibble: 173 x 5
##     iso3        country whoreg  year   inc
##    <chr>          <chr>  <chr> <int> <int>
##  1   ASM American Samoa    WPR  1996     0
##  2   AIA       Anguilla    AMR  1980     0
##  3   AIA       Anguilla    AMR  1981     0
##  4   AIA       Anguilla    AMR  1983     0
##  5   AIA       Anguilla    AMR  1984     0
##  6   AIA       Anguilla    AMR  1986     0
##  7   AIA       Anguilla    AMR  1987     0
##  8   AIA       Anguilla    AMR  1988     0
##  9   AIA       Anguilla    AMR  1989     0
## 10   AIA       Anguilla    AMR  1990     0
## # ... with 163 more rows
…
## # A tibble: 5 x 5
##    year Angola Argentina Armenia Azerbaijan
##   <int>  <int>     <int>   <int>      <int>
## 1  1980  10117     16406     756       3080
## 2  1981   7501     16693     924       3180
## 3  1982   7911     17292     759       3217
## 4  1983   6625     17305     702       3176
## 5  1984  10153     16359     774       3506

## # A tibble: 36 x 5
##     iso3   country whoreg  year   inc
##    <chr>     <chr>  <chr> <int> <int>
##  1   ARG Argentina    AMR  1980 16406
##  2   ARG Argentina    AMR  1981 16693
##  3   ARG Argentina    AMR  1982 17292
##  4   ARG Argentina    AMR  1983 17305
##  5   ARG Argentina    AMR  1984 16359
##  6   ARG Argentina    AMR  1985 15987
##  7   ARG Argentina    AMR  1986 14681
##  8   ARG Argentina    AMR  1987 13368
##  9   ARG Argentina    AMR  1988 13267
## 10   ARG Argentina    AMR  1989 12636
## # ... with 26 more rows
…
##  [1] "January"   "February"  "March"     "April"     "May"      
##  [6] "June"      "July"      "August"    "September" "October"  
## [11] "November"  "December"

meas2$month <- factor(meas2$month, ordered = T, levels = month.name)
meas2$monthNum <- as.numeric(meas2$month)
meas2$monthNum <- str_pad(meas2$monthNum, width = 2, side = 'left', pad=0)
meas2

## # A tibble: 16,296 x 6
##     ISO3     Country  Year   month cases monthNum
##    <chr>       <chr> <dbl>   <ord> <chr>    <chr>
##  1   AFG Afghanistan  2011 January   138       01
##  2   AFG Afghanistan  2012 January   360       01
##  3   AFG Afghanistan  2013 January    36       01
##  4   AFG Afghanistan  2014 January    69       01
##  5   AFG Afghanistan  2015 January    89       01
##  6   AFG Afghanistan  2016 January     8       01
##  7   AFG Afghanistan  2017 January   207       01
##  8   AGO      Angola  2011 January    17       01
##  9   AGO      Angola  2012 January   373       01
## 10   AGO      Angola  2013 January   725       01
## # ... with 16,286 more rows
…
filter(meas2, monthNum==5) ## look at a random month num

## # A tibble: 0 x 6
## # ... with 6 variables: ISO3 <chr>, Country <chr>, Year <dbl>,
## #   month <ord>, cases <chr>, monthNum <chr>

meas3 <- ## unite year & month columns
  unite(meas2, ym, Year, monthNum, sep='-') %>%
  mutate(date = paste0(ym, '-01')) %>% ## add day
  mutate(date = ymd(date)) %>%
  select(-month)
meas3

## # A tibble: 16,296 x 5
##     ISO3     Country      ym cases       date
##    <chr>       <chr>   <chr> <chr>     <date>
##  1   AFG Afghanistan 2011-01   138 2011-01-01
##  2   AFG Afghanistan 2012-01   360 2012-01-01
##  3   AFG Afghanistan 2013-01    36 2013-01-01
##  4   AFG Afghanistan 2014-01    69 2014-01-01
##  5   AFG Afghanistan 2015-01    89 2015-01-01
##  6   AFG Afghanistan 2016-01     8 2016-01-01
##  7   AFG Afghanistan 2017-01   207 2017-01-01
##  8   AGO      Angola 2011-01    17 2011-01-01
##  9   AGO      Angola 2012-01   373 2012-01-01
## 10   AGO      Angola 2013-01   725 2013-01-01
## # ... with 16,286 more rows
…
